…
~~~r
> blockgroups
~~~
{:title="Console" .input}


~~~
Simple feature collection with 147 features and 3 fields
Geometry type: POLYGON
Dimension:     XY
Bounding box:  xmin: 401938.3 ymin: 4759734 xmax: 412486.4 ymax: 4771049
CRS:           32618
# A tibble: 147 x 4
   BKG_KEY   Shape_Leng Shape_Area                                      geometry
   <chr>          <dbl>      <dbl>                                 <POLYGON [m]>
 1 36067000…     13520.   6135184. ((403476.4 4767682, 403356.7 4767804, 403117…
 2 36067000…      2547.    301840. ((406271.7 4770188, 406186.1 4770270, 406107…
 3 36067000…      2678.    250998. ((406730.3 4770235, 406687.8 4770205, 406650…
 4 36067000…      3392.    656276. ((406436.1 4770029, 406340 4769973, 406307.2…
 5 36067000…      2224.    301086. ((407469 4770033, 407363.9 4770035, 407233.4…
 6 36067000…      3263.    606495. ((408398.6 4769564, 408283.1 4769556, 408181…
 7 36067000…      2878.    274532. ((407477.4 4769773, 407401 4769767, 407320.2…
 8 36067000…      3606.    331035. ((407486 4769507, 407443.5 4769504, 407405.6…
 9 36067001…      2951.    376786. ((410704.4 4769103, 410625.2 4769100, 410542…
10 36067001…      2868.    265836. ((409318.3 4769203, 409299.6 4769535, 409231…
# … with 137 more rows
…
